slot;year;age;data;units
catch;1994;all;9843;tons
catch;1995;all;11915;tons
catch;1996;all;16041;tons
catch;1997;all;14851;tons
catch;1998;all;22440;tons
catch;1999;all;24939;tons
catch;2000;all;26033;tons
catch;2001;all;46195;tons
catch;2002;all;44283;tons
catch;2003;all;43241;tons
catch;2004;all;36269;tons
catch;2005;all;39495;tons
catch;2006;all;24993;tons
catch;2007;all;19715;tons
catch;2008;all;25703;tons
catch;2009;all;28939;tons
catch;2010;all;27415;tons
catch;2011;all;26118;tons
catch;2012;all;17393;tons
catch;2013;all;12416;tons
catch;2014;all;12338;tons
catch;2015;all;26119;tons
catch;2016;all;25766;tons
catch;2017;all;14782;tons
catch;2018;all;13692.763;tons
catch;2019;all;18677.202;tons
catch.n;1994;0;8817418.333;numbers
catch.n;1994;1;407571932.8;numbers
catch.n;1994;2;1761792605;numbers
catch.n;1994;3;344841132.6;numbers
catch.n;1994;4;2740755.121;numbers
catch.n;1994;5;0;numbers
catch.n;1995;0;47645304.73;numbers
catch.n;1995;1;1735100602;numbers
catch.n;1995;2;1061525405;numbers
catch.n;1995;3;86954032.78;numbers
catch.n;1995;4;4249229.678;numbers
catch.n;1995;5;0;numbers
catch.n;1996;0;18927456.83;numbers
catch.n;1996;1;2249477276;numbers
catch.n;1996;2;1053214406;numbers
catch.n;1996;3;304649927;numbers
catch.n;1996;4;10474836.19;numbers
catch.n;1996;5;0;numbers
catch.n;1997;0;199170237.9;numbers
catch.n;1997;1;3149988854;numbers
catch.n;1997;2;757792242.9;numbers
catch.n;1997;3;58012463.76;numbers
catch.n;1997;4;8576605.883;numbers
catch.n;1997;5;0;numbers
catch.n;1998;0;444583876.1;numbers
catch.n;1998;1;2581207941;numbers
catch.n;1998;2;1881583609;numbers
catch.n;1998;3;155240324;numbers
catch.n;1998;4;10659670.99;numbers
catch.n;1998;5;0;numbers
catch.n;1999;0;35113310.22;numbers
catch.n;1999;1;6315261944;numbers
catch.n;1999;2;893113070.9;numbers
catch.n;1999;3;46719655.98;numbers
catch.n;1999;4;561325.3067;numbers
catch.n;1999;5;0;numbers
catch.n;2000;0;306121557.3;numbers
catch.n;2000;1;2992254239;numbers
catch.n;2000;2;1968288067;numbers
catch.n;2000;3;893065225.2;numbers
catch.n;2000;4;82095247.57;numbers
catch.n;2000;5;0;numbers
catch.n;2001;0;616889735.4;numbers
catch.n;2001;1;7838921941;numbers
catch.n;2001;2;4797335852;numbers
catch.n;2001;3;913736663.3;numbers
catch.n;2001;4;87405537.47;numbers
catch.n;2001;5;0;numbers
catch.n;2002;0;256488130.5;numbers
catch.n;2002;1;4223689661;numbers
catch.n;2002;2;4783986557;numbers
catch.n;2002;3;2042799712;numbers
catch.n;2002;4;123996891.7;numbers
catch.n;2002;5;0;numbers
catch.n;2003;0;907505635.6;numbers
catch.n;2003;1;3606387310;numbers
catch.n;2003;2;3596958836;numbers
catch.n;2003;3;2248542452;numbers
catch.n;2003;4;514178184;numbers
catch.n;2003;5;0;numbers
catch.n;2004;0;226201256.4;numbers
catch.n;2004;1;4816809819;numbers
catch.n;2004;2;1781334894;numbers
catch.n;2004;3;2102394742;numbers
catch.n;2004;4;194277692;numbers
catch.n;2004;5;0;numbers
catch.n;2005;0;398464140.1;numbers
catch.n;2005;1;4143035047;numbers
catch.n;2005;2;3215241592;numbers
catch.n;2005;3;1093803611;numbers
catch.n;2005;4;294075944.3;numbers
catch.n;2005;5;0;numbers
catch.n;2006;0;997890604.4;numbers
catch.n;2006;1;4191199086;numbers
catch.n;2006;2;1607958921;numbers
catch.n;2006;3;573424211;numbers
catch.n;2006;4;58488490.66;numbers
catch.n;2006;5;0;numbers
catch.n;2007;0;2874840420;numbers
catch.n;2007;1;3079010471;numbers
catch.n;2007;2;585781815.7;numbers
catch.n;2007;3;409139024.1;numbers
catch.n;2007;4;39917630.66;numbers
catch.n;2007;5;0;numbers
catch.n;2008;0;1524889243;numbers
catch.n;2008;1;4929708553;numbers
catch.n;2008;2;960281748.3;numbers
catch.n;2008;3;649460569.3;numbers
catch.n;2008;4;53089387.1;numbers
catch.n;2008;5;0;numbers
catch.n;2009;0;922561119.5;numbers
catch.n;2009;1;4974787204;numbers
catch.n;2009;2;2125626625;numbers
catch.n;2009;3;555826238.1;numbers
catch.n;2009;4;9799507.51;numbers
catch.n;2009;5;0;numbers
catch.n;2010;0;3407215082;numbers
catch.n;2010;1;5468158144;numbers
catch.n;2010;2;1045755923;numbers
catch.n;2010;3;75118058.02;numbers
catch.n;2010;4;3751458.9;numbers
catch.n;2010;5;421266.87;numbers
catch.n;2011;0;2919763684;numbers
catch.n;2011;1;4602023218;numbers
catch.n;2011;2;1283268978;numbers
catch.n;2011;3;260671488.9;numbers
catch.n;2011;4;1940991.04;numbers
catch.n;2011;5;0;numbers
catch.n;2012;0;3774197939;numbers
catch.n;2012;1;2838774703;numbers
catch.n;2012;2;813261224.1;numbers
catch.n;2012;3;308276759.8;numbers
catch.n;2012;4;35399904.95;numbers
catch.n;2012;5;0;numbers
catch.n;2013;0;1606362476;numbers
catch.n;2013;1;2429282109;numbers
catch.n;2013;2;1208264229;numbers
catch.n;2013;3;101853612.8;numbers
catch.n;2013;4;5550764.25;numbers
catch.n;2013;5;0;numbers
catch.n;2014;0;1571192050;numbers
catch.n;2014;1;3207004219;numbers
catch.n;2014;2;1240090866;numbers
catch.n;2014;3;117547074.6;numbers
catch.n;2014;4;18462891.3;numbers
catch.n;2014;5;0;numbers
catch.n;2015;0;1421718553;numbers
catch.n;2015;1;1863958195;numbers
catch.n;2015;2;2398740577;numbers
catch.n;2015;3;2261154910;numbers
catch.n;2015;4;215387084.9;numbers
catch.n;2015;5;28663680.5;numbers
catch.n;2016;0;2852302033;numbers
catch.n;2016;1;4630796241;numbers
catch.n;2016;2;2758575272;numbers
catch.n;2016;3;1083064788;numbers
catch.n;2016;4;234895461.5;numbers
catch.n;2016;5;11571205;numbers
catch.n;2017;0;2820812334;numbers
catch.n;2017;1;1812409445;numbers
catch.n;2017;2;2112571893;numbers
catch.n;2017;3;375917731.9;numbers
catch.n;2017;4;25013537.3;numbers
catch.n;2017;5;0;numbers
catch.n;2018;0;273223742.6;numbers
catch.n;2018;1;997042092.4;numbers
catch.n;2018;2;2598572433;numbers
catch.n;2018;3;1470075832;numbers
catch.n;2018;4;288326739.4;numbers
catch.n;2018;5;30245612.97;numbers
catch.n;2019;0;526715390.3;numbers
catch.n;2019;1;1765210988;numbers
catch.n;2019;2;3815047871;numbers
catch.n;2019;3;1628833946;numbers
catch.n;2019;4;233378504.3;numbers
catch.n;2019;5;94753300.05;numbers
catch.wt;1994;0;0.0000023;g
catch.wt;1994;1;0.0000033;g
catch.wt;1994;2;0.0000039;g
catch.wt;1994;3;0.0000045;g
catch.wt;1994;4;0.000007;g
catch.wt;1994;5;0.00001;g
catch.wt;1995;0;0.0000025;g
catch.wt;1995;1;0.0000037;g
catch.wt;1995;2;0.0000045;g
catch.wt;1995;3;0.0000054;g
catch.wt;1995;4;0.0000069;g
catch.wt;1995;5;0.00001;g
catch.wt;1996;0;0.0000025;g
catch.wt;1996;1;0.0000039;g
catch.wt;1996;2;0.0000052;g
catch.wt;1996;3;0.0000059;g
catch.wt;1996;4;0.0000072;g
catch.wt;1996;5;0.00001;g
catch.wt;1997;0;0.0000023;g
catch.wt;1997;1;0.0000033;g
catch.wt;1997;2;0.0000048;g
catch.wt;1997;3;0.0000061;g
catch.wt;1997;4;0.0000072;g
catch.wt;1997;5;0.00001;g
catch.wt;1998;0;0.0000024;g
catch.wt;1998;1;0.000004;g
catch.wt;1998;2;0.0000052;g
catch.wt;1998;3;0.0000077;g
catch.wt;1998;4;0.0000095;g
catch.wt;1998;5;0.00001;g
catch.wt;1999;0;0.0000027;g
catch.wt;1999;1;0.0000032;g
catch.wt;1999;2;0.0000049;g
catch.wt;1999;3;0.0000064;g
catch.wt;1999;4;0.000007;g
catch.wt;1999;5;0.00001;g
catch.wt;2000;0;0.0000023;g
catch.wt;2000;1;0.0000035;g
catch.wt;2000;2;0.0000045;g
catch.wt;2000;3;0.000006;g
catch.wt;2000;4;0.0000078;g
catch.wt;2000;5;0.00001;g
catch.wt;2001;0;0.0000017;g
catch.wt;2001;1;0.0000025;g
catch.wt;2001;2;0.000004;g
catch.wt;2001;3;0.0000063;g
catch.wt;2001;4;0.0000069;g
catch.wt;2001;5;0.00001;g
catch.wt;2002;0;0.0000018;g
catch.wt;2002;1;0.0000027;g
catch.wt;2002;2;0.0000041;g
catch.wt;2002;3;0.0000058;g
catch.wt;2002;4;0.0000077;g
catch.wt;2002;5;0.00001;g
catch.wt;2003;0;0.0000017;g
catch.wt;2003;1;0.0000028;g
catch.wt;2003;2;0.000004;g
catch.wt;2003;3;0.0000061;g
catch.wt;2003;4;0.0000068;g
catch.wt;2003;5;0.00001;g
catch.wt;2004;0;0.0000019;g
catch.wt;2004;1;0.0000029;g
catch.wt;2004;2;0.0000044;g
catch.wt;2004;3;0.000006;g
catch.wt;2004;4;0.0000073;g
catch.wt;2004;5;0.00001;g
catch.wt;2005;0;0.0000021;g
catch.wt;2005;1;0.0000035;g
catch.wt;2005;2;0.0000047;g
catch.wt;2005;3;0.0000062;g
catch.wt;2005;4;0.0000077;g
catch.wt;2005;5;0.00001;g
catch.wt;2006;0;0.000002;g
catch.wt;2006;1;0.0000033;g
catch.wt;2006;2;0.0000043;g
catch.wt;2006;3;0.000006;g
catch.wt;2006;4;0.0000073;g
catch.wt;2006;5;0.00001;g
catch.wt;2007;0;0.0000017;g
catch.wt;2007;1;0.0000033;g
catch.wt;2007;2;0.0000049;g
catch.wt;2007;3;0.0000072;g
catch.wt;2007;4;0.0000087;g
catch.wt;2007;5;0.00001;g
catch.wt;2008;0;0.0000023;g
catch.wt;2008;1;0.0000034;g
catch.wt;2008;2;0.0000043;g
catch.wt;2008;3;0.0000052;g
catch.wt;2008;4;0.000007;g
catch.wt;2008;5;0.00001;g
catch.wt;2009;0;0.0000024;g
catch.wt;2009;1;0.0000031;g
catch.wt;2009;2;0.000004;g
catch.wt;2009;3;0.0000049;g
catch.wt;2009;4;0.000006;g
catch.wt;2009;5;0.00001;g
catch.wt;2010;0;0.0000021;g
catch.wt;2010;1;0.0000027;g
catch.wt;2010;2;0.0000037;g
catch.wt;2010;3;0.0000046;g
catch.wt;2010;4;0.0000087;g
catch.wt;2010;5;0.00001;g
catch.wt;2011;0;0.0000021;g
catch.wt;2011;1;0.0000027;g
catch.wt;2011;2;0.0000037;g
catch.wt;2011;3;0.0000046;g
catch.wt;2011;4;0.0000087;g
catch.wt;2011;5;0.00001;g
catch.wt;2012;0;1.61E-06;g
catch.wt;2012;1;2.23E-06;g
catch.wt;2012;2;4.21E-06;g
catch.wt;2012;3;5.46E-06;g
catch.wt;2012;4;6.10E-06;g
catch.wt;2012;5;0.000008;g
catch.wt;2013;0;1.94E-06;g
catch.wt;2013;1;2.26E-06;g
catch.wt;2013;2;0.0000028;g
catch.wt;2013;3;0.00000398;g
catch.wt;2013;4;0.0000042;g
catch.wt;2013;5;0.00001;g
catch.wt;2014;0;0.0000017;g
catch.wt;2014;1;0.0000019;g
catch.wt;2014;2;0.0000023;g
catch.wt;2014;3;0.0000049;g
catch.wt;2014;4;0.0000079;g
catch.wt;2014;5;0.00001;g
catch.wt;2015;0;0.0000023;g
catch.wt;2015;1;0.0000028;g
catch.wt;2015;2;0.0000037;g
catch.wt;2015;3;0.0000044;g
catch.wt;2015;4;0.0000071;g
catch.wt;2015;5;0.0000072;g
catch.wt;2016;0;0.0000015;g
catch.wt;2016;1;0.0000021;g
catch.wt;2016;2;0.0000025;g
catch.wt;2016;3;0.000004;g
catch.wt;2016;4;0.0000057;g
catch.wt;2016;5;0.0000079;g
catch.wt;2017;0;0.0000015;g
catch.wt;2017;1;0.000002;g
catch.wt;2017;2;0.0000026;g
catch.wt;2017;3;0.0000035;g
catch.wt;2017;4;0.0000047;g
catch.wt;2017;5;0.000007;g
catch.wt;2018;0;0.0000012;g
catch.wt;2018;1;0.0000017;g
catch.wt;2018;2;0.0000021;g
catch.wt;2018;3;0.000003;g
catch.wt;2018;4;0.0000051;g
catch.wt;2018;5;0.0000078;g
catch.wt;2019;0;0.0000016;g
catch.wt;2019;1;0.0000019;g
catch.wt;2019;2;0.0000021;g
catch.wt;2019;3;0.0000028;g
catch.wt;2019;4;0.0000047;g
catch.wt;2019;5;0.0000066;g
m;1994;0;0.9;M
m;1994;1;0.75;M
m;1994;2;0.59;M
m;1994;3;0.52;M
m;1994;4;0.48;M
m;1994;5;0.45;M
m;1995;0;0.9;M
m;1995;1;0.75;M
m;1995;2;0.59;M
m;1995;3;0.52;M
m;1995;4;0.48;M
m;1995;5;0.45;M
m;1996;0;0.9;M
m;1996;1;0.75;M
m;1996;2;0.59;M
m;1996;3;0.52;M
m;1996;4;0.48;M
m;1996;5;0.45;M
m;1997;0;0.9;M
m;1997;1;0.75;M
m;1997;2;0.59;M
m;1997;3;0.52;M
m;1997;4;0.48;M
m;1997;5;0.45;M
m;1998;0;0.9;M
m;1998;1;0.75;M
m;1998;2;0.59;M
m;1998;3;0.52;M
m;1998;4;0.48;M
m;1998;5;0.45;M
m;1999;0;0.9;M
m;1999;1;0.75;M
m;1999;2;0.59;M
m;1999;3;0.52;M
m;1999;4;0.48;M
m;1999;5;0.45;M
m;2000;0;0.9;M
m;2000;1;0.75;M
m;2000;2;0.59;M
m;2000;3;0.52;M
m;2000;4;0.48;M
m;2000;5;0.45;M
m;2001;0;0.9;M
m;2001;1;0.75;M
m;2001;2;0.59;M
m;2001;3;0.52;M
m;2001;4;0.48;M
m;2001;5;0.45;M
m;2002;0;1.15;M
m;2002;1;0.75;M
m;2002;2;0.59;M
m;2002;3;0.52;M
m;2002;4;0.48;M
m;2002;5;0.45;M
m;2003;0;1.15;M
m;2003;1;0.75;M
m;2003;2;0.59;M
m;2003;3;0.52;M
m;2003;4;0.48;M
m;2003;5;0.45;M
m;2004;0;1.15;M
m;2004;1;0.75;M
m;2004;2;0.59;M
m;2004;3;0.52;M
m;2004;4;0.48;M
m;2004;5;0.45;M
m;2005;0;1.15;M
m;2005;1;0.75;M
m;2005;2;0.59;M
m;2005;3;0.52;M
m;2005;4;0.48;M
m;2005;5;0.45;M
m;2006;0;0.82;M
m;2006;1;0.68;M
m;2006;2;0.52;M
m;2006;3;0.44;M
m;2006;4;0.39;M
m;2006;5;0.36;M
m;2007;0;0.82;M
m;2007;1;0.68;M
m;2007;2;0.52;M
m;2007;3;0.44;M
m;2007;4;0.39;M
m;2007;5;0.36;M
m;2008;0;0.82;M
m;2008;1;0.68;M
m;2008;2;0.52;M
m;2008;3;0.44;M
m;2008;4;0.39;M
m;2008;5;0.36;M
m;2009;0;0.82;M
m;2009;1;0.68;M
m;2009;2;0.52;M
m;2009;3;0.44;M
m;2009;4;0.39;M
m;2009;5;0.36;M
m;2010;0;0.82;M
m;2010;1;0.68;M
m;2010;2;0.52;M
m;2010;3;0.44;M
m;2010;4;0.39;M
m;2010;5;0.36;M
m;2011;0;0.82;M
m;2011;1;0.68;M
m;2011;2;0.52;M
m;2011;3;0.44;M
m;2011;4;0.39;M
m;2011;5;0.36;M
m;2012;0;0.82;M
m;2012;1;0.68;M
m;2012;2;0.52;M
m;2012;3;0.44;M
m;2012;4;0.39;M
m;2012;5;0.36;M
m;2013;0;0.82;M
m;2013;1;0.68;M
m;2013;2;0.52;M
m;2013;3;0.44;M
m;2013;4;0.39;M
m;2013;5;0.36;M
m;2014;0;2.06;M
m;2014;1;1.3;M
m;2014;2;0.77;M
m;2014;3;0.58;M
m;2014;4;0.49;M
m;2014;5;0.43;M
m;2015;0;1.22;M
m;2015;1;0.91;M
m;2015;2;0.62;M
m;2015;3;0.49;M
m;2015;4;0.42;M
m;2015;5;0.38;M
m;2016;0;1.24;M
m;2016;1;0.92;M
m;2016;2;0.62;M
m;2016;3;0.49;M
m;2016;4;0.41;M
m;2016;5;0.37;M
m;2017;0;1.24;M
m;2017;1;0.92;M
m;2017;2;0.62;M
m;2017;3;0.49;M
m;2017;4;0.41;M
m;2017;5;0.37;M
m;2018;0;1.24;M
m;2018;1;0.92;M
m;2018;2;0.62;M
m;2018;3;0.49;M
m;2018;4;0.41;M
m;2018;5;0.37;M
m;2019;0;1.24;M
m;2019;1;0.92;M
m;2019;2;0.62;M
m;2019;3;0.49;M
m;2019;4;0.41;M
m;2019;5;0.37;M
mat;1994;0;0;probability
mat;1994;1;1;probability
mat;1994;2;1;probability
mat;1994;3;1;probability
mat;1994;4;1;probability
mat;1994;5;1;probability
mat;1995;0;0;probability
mat;1995;1;1;probability
mat;1995;2;1;probability
mat;1995;3;1;probability
mat;1995;4;1;probability
mat;1995;5;1;probability
mat;1996;0;0;probability
mat;1996;1;1;probability
mat;1996;2;1;probability
mat;1996;3;1;probability
mat;1996;4;1;probability
mat;1996;5;1;probability
mat;1997;0;0;probability
mat;1997;1;1;probability
mat;1997;2;1;probability
mat;1997;3;1;probability
mat;1997;4;1;probability
mat;1997;5;1;probability
mat;1998;0;0;probability
mat;1998;1;1;probability
mat;1998;2;1;probability
mat;1998;3;1;probability
mat;1998;4;1;probability
mat;1998;5;1;probability
mat;1999;0;0;probability
mat;1999;1;1;probability
mat;1999;2;1;probability
mat;1999;3;1;probability
mat;1999;4;1;probability
mat;1999;5;1;probability
mat;2000;0;0;probability
mat;2000;1;1;probability
mat;2000;2;1;probability
mat;2000;3;1;probability
mat;2000;4;1;probability
mat;2000;5;1;probability
mat;2001;0;0;probability
mat;2001;1;1;probability
mat;2001;2;1;probability
mat;2001;3;1;probability
mat;2001;4;1;probability
mat;2001;5;1;probability
mat;2002;0;0;probability
mat;2002;1;1;probability
mat;2002;2;1;probability
mat;2002;3;1;probability
mat;2002;4;1;probability
mat;2002;5;1;probability
mat;2003;0;0;probability
mat;2003;1;1;probability
mat;2003;2;1;probability
mat;2003;3;1;probability
mat;2003;4;1;probability
mat;2003;5;1;probability
mat;2004;0;0;probability
mat;2004;1;1;probability
mat;2004;2;1;probability
mat;2004;3;1;probability
mat;2004;4;1;probability
mat;2004;5;1;probability
mat;2005;0;0;probability
mat;2005;1;1;probability
mat;2005;2;1;probability
mat;2005;3;1;probability
mat;2005;4;1;probability
mat;2005;5;1;probability
mat;2006;0;0;probability
mat;2006;1;1;probability
mat;2006;2;1;probability
mat;2006;3;1;probability
mat;2006;4;1;probability
mat;2006;5;1;probability
mat;2007;0;0;probability
mat;2007;1;1;probability
mat;2007;2;1;probability
mat;2007;3;1;probability
mat;2007;4;1;probability
mat;2007;5;1;probability
mat;2008;0;0;probability
mat;2008;1;1;probability
mat;2008;2;1;probability
mat;2008;3;1;probability
mat;2008;4;1;probability
mat;2008;5;1;probability
mat;2009;0;0;probability
mat;2009;1;1;probability
mat;2009;2;1;probability
mat;2009;3;1;probability
mat;2009;4;1;probability
mat;2009;5;1;probability
mat;2010;0;0;probability
mat;2010;1;1;probability
mat;2010;2;1;probability
mat;2010;3;1;probability
mat;2010;4;1;probability
mat;2010;5;1;probability
mat;2011;0;0;probability
mat;2011;1;1;probability
mat;2011;2;1;probability
mat;2011;3;1;probability
mat;2011;4;1;probability
mat;2011;5;1;probability
mat;2012;0;0;probability
mat;2012;1;1;probability
mat;2012;2;1;probability
mat;2012;3;1;probability
mat;2012;4;1;probability
mat;2012;5;1;probability
mat;2013;0;0;probability
mat;2013;1;1;probability
mat;2013;2;1;probability
mat;2013;3;1;probability
mat;2013;4;1;probability
mat;2013;5;1;probability
mat;2014;0;0;probability
mat;2014;1;1;probability
mat;2014;2;1;probability
mat;2014;3;1;probability
mat;2014;4;1;probability
mat;2014;5;1;probability
mat;2015;0;0.02;probability
mat;2015;1;0.9;probability
mat;2015;2;1;probability
mat;2015;3;1;probability
mat;2015;4;1;probability
mat;2015;5;1;probability
mat;2016;0;0.02;probability
mat;2016;1;0.9;probability
mat;2016;2;1;probability
mat;2016;3;1;probability
mat;2016;4;1;probability
mat;2016;5;1;probability
mat;2017;0;0.02;probability
mat;2017;1;1;probability
mat;2017;2;1;probability
mat;2017;3;1;probability
mat;2017;4;1;probability
mat;2017;5;1;probability
mat;2018;0;0.02;probability
mat;2018;1;1;probability
mat;2018;2;1;probability
mat;2018;3;1;probability
mat;2018;4;1;probability
mat;2018;5;1;probability
mat;2019;0;0.02;probability
mat;2019;1;1;probability
mat;2019;2;1;probability
mat;2019;3;1;probability
mat;2019;4;1;probability
mat;2019;5;1;probability
